…
# View the panel dataframe
print(fsi_panel)
```

    ## # A tibble: 299 × 15
    ##    Country year  Total `C1: Security Apparatus` `C2: Factionalized Elites`
    ##    <chr>   <chr> <dbl>                    <dbl>                      <dbl>
    ##  1 Sudan   2011   109.                     9.6                         9.9
    ##  2 Sudan   2012   109.                     9.7                         9.9
    ##  3 Sudan   2013   111                      9.8                        10  
    ##  4 Sudan   2014   110.                     9.6                        10  
    ##  5 Sudan   2015   111.                     9.5                         9.8
    ##  6 Sudan   2016   112.                     9.2                        10  
    ##  7 Sudan   2017   111.                     9                           9.7
    ##  8 Sudan   2018   109.                     8.7                         9.7
    ##  9 Sudan   2019   108                      8.4                         9.7
    ## 10 Sudan   2020   105.                     8.38                        9.4
    ## # ℹ 289 more rows
    ## # ℹ 10 more variables: `C3: Group Grievance` <dbl>, `E1: Economy` <dbl>,
    ## #   `E2: Economic Inequality` <dbl>, `E3: Human Flight and Brain Drain` <dbl>,
    ## #   `P1: State Legitimacy` <dbl>, `P2: Public Services` <dbl>,
    ## #   `P3: Human Rights` <dbl>, `S1: Demographic Pressures` <dbl>,
    ## #   `S2: Refugees and IDPs` <dbl>, `X1: External Intervention` <dbl>
…
